{
  "content": [
    {
      "Email": "karami_itpm@yahoo.com",
      "Description": null,
      "Degree": "کارشناسی ارشد",
      "Sex": "Female",
      "Average": "15",
      "UniversityType": "دولتی-روزانه",
      "FullTime": true,
      "GraduatedYear": "2017-09-23",
      "Name": "سهیلا",
      "Side": null,
      "CompanyName": null,
      "Phone": "9133333333",
      "NationalCode": "0032145698",
      "UniversityName": "شیراز",
      "SoldierStatus": null,
      "id": 298,
      "LastName": "زاهدی",
      "CompanyPhone": null,
      "SumYear": null,
      "RequiredSalary": "2000000"
    },
    {
      "Email": "karami_itpm@yahoo.com",
      "Description": null,
      "Degree": "کارشناسی ارشد",
      "Sex": "Female",
      "Average": "18",
      "UniversityType": null,
      "FullTime": true,
      "GraduatedYear": null,
      "Name": "زهرا",
      "Side": null,
      "CompanyName": null,
      "Phone": "9000000000",
      "NationalCode": "0480000000",
      "UniversityName": null,
      "SoldierStatus": null,
      "id": 307,
      "LastName": "کرمی",
      "CompanyPhone": null,
      "SumYear": null,
      "RequiredSalary": null
    },
    {
      "Email": "karami_itpm@yahoo.com",
      "Description": null,
      "Degree": null,
      "Sex": "Female",
      "Average": null,
      "UniversityType": null,
      "FullTime": false,
      "GraduatedYear": null,
      "Name": "زهرا",
      "Side": null,
      "CompanyName": null,
      "Phone": "9124541304",
      "NationalCode": "0480002231",
      "UniversityName": null,
      "SoldierStatus": null,
      "id": 331,
      "LastName": "کرمی",
      "CompanyPhone": null,
      "SumYear": null,
      "RequiredSalary": null
    },
    {
      "Email": "karami_itpm@yahoo.com",
      "Description": null,
      "Degree": null,
      "Sex": "Female",
      "Average": null,
      "UniversityType": null,
      "FullTime": false,
      "GraduatedYear": null,
      "Name": "ناهید",
      "Side": null,
      "CompanyName": null,
      "Phone": "0000000000",
      "NationalCode": "0000000000",
      "UniversityName": null,
      "SoldierStatus": null,
      "id": 346,
      "LastName": "علوی",
      "CompanyPhone": null,
      "SumYear": null,
      "RequiredSalary": null
    },
    {
      "Email": "karami_itpm@yahoo.com",
      "Description": null,
      "Degree": null,
      "Sex": "Female",
      "Average": null,
      "UniversityType": null,
      "FullTime": false,
      "GraduatedYear": null,
      "Name": "یاسمن",
      "Side": null,
      "CompanyName": null,
      "Phone": "9123323231",
      "NationalCode": "0456988888",
      "UniversityName": null,
      "SoldierStatus": null,
      "id": 352,
      "LastName": "نظری",
      "CompanyPhone": null,
      "SumYear": null,
      "RequiredSalary": null
    },
    {
      "Email": "karami_itpm@yahoo.com",
      "Description": null,
      "Degree": null,
      "Sex": "Female",
      "Average": null,
      "UniversityType": null,
      "FullTime": false,
      "GraduatedYear": null,
      "Name": "زهرا",
      "Side": null,
      "CompanyName": null,
      "Phone": "9124541304",
      "NationalCode": "0480002231",
      "UniversityName": null,
      "SoldierStatus": null,
      "id": 361,
      "LastName": "کرمی",
      "CompanyPhone": null,
      "SumYear": null,
      "RequiredSalary": null
    },
    {
      "Email": "karami_itpm@yahoo.com",
      "Description": null,
      "Degree": null,
      "Sex": "Man",
      "Average": null,
      "UniversityType": null,
      "FullTime": false,
      "GraduatedYear": null,
      "Name": "علی",
      "Side": null,
      "CompanyName": null,
      "Phone": "09125555555",
      "NationalCode": "0123654454",
      "UniversityName": null,
      "SoldierStatus": "معاف",
      "id": 373,
      "LastName": "حاتم",
      "CompanyPhone": null,
      "SumYear": null,
      "RequiredSalary": null
    },
    {
      "Email": "karami_itpm@yahoo.com",
      "Description": null,
      "Degree": "دیپلم",
      "Sex": "Man",
      "Average": "17.30",
      "UniversityType": null,
      "FullTime": true,
      "GraduatedYear": "2004-06-26",
      "Name": "علی ",
      "Side": null,
      "CompanyName": null,
      "Phone": "09102222222",
      "NationalCode": "0012365478",
      "UniversityName": null,
      "SoldierStatus": "معافیت موقت",
      "id": 385,
      "LastName": "احسانی",
      "CompanyPhone": null,
      "SumYear": null,
      "RequiredSalary": null
    },
    {
      "Email": "poursoltan@gmail.com",
      "Description": "میخوام کار کنم",
      "Degree": "کارشناسی ارشد",
      "Sex": "Man",
      "Average": "15",
      "UniversityType": "آزاد اسلامی",
      "FullTime": true,
      "GraduatedYear": "1968-01-01",
      "Name": "علی ",
      "Side": null,
      "CompanyName": null,
      "Phone": "09876543212",
      "NationalCode": "0098765555",
      "UniversityName": "تهران",
      "SoldierStatus": "معافیت موقت",
      "id": 400,
      "LastName": "علوی",
      "CompanyPhone": null,
      "SumYear": null,
      "RequiredSalary": "1500000"
    },
    {
      "Email": "poursoltan@gmail.com",
      "Description": null,
      "Degree": "کارشناسی",
      "Sex": "Female",
      "Average": "16",
      "UniversityType": "غیراتفاعی",
      "FullTime": true,
      "GraduatedYear": null,
      "Name": "زهرا",
      "Side": null,
      "CompanyName": null,
      "Phone": "09878766544",
      "NationalCode": "0098987987",
      "UniversityName": "تهران",
      "SoldierStatus": null,
      "id": 406,
      "LastName": "حسنی",
      "CompanyPhone": null,
      "SumYear": null,
      "RequiredSalary": "1800000"
    }
  ],
  "totalElements": 40,
  "last": false,
  "totalPages": 4,
  "sort": null,
  "first": true,
  "numberOfElements": 10,
  "size": 10,
  "number": 0
}
