{
  "content": [
    {
      "Email": "karami_itpm@yahoo.com",
      "Description": null,
      "Degree": null,
      "Sex": "Man",
      "Average": null,
      "UniversityType": null,
      "FullTime": false,
      "GraduatedYear": null,
      "Name": "علی",
      "Side": null,
      "CompanyName": null,
      "Phone": "00000000000",
      "NationalCode": "0055554545",
      "UniversityName": null,
      "SoldierStatus": "پایان خدمت",
      "id": 415,
      "LastName": "احمدی",
      "CompanyPhone": null,
      "SumYear": null,
      "RequiredSalary": null
    },
    {
      "Email": "11",
      "Description": "خوب نیستید :)",
      "Degree": "کارشناسی ارشد",
      "Sex": "Man",
      "Average": "1اتاتتمنتمنتمنتم",
      "UniversityType": "پیام نور",
      "FullTime": false,
      "GraduatedYear": "2017-10-09",
      "Name": "1",
      "Side": "11111",
      "CompanyName": "12132223",
      "Phone": "11111111111",
      "NationalCode": "1111111111",
      "UniversityName": "11",
      "SoldierStatus": "مشمول",
      "id": 424,
      "LastName": "1",
      "CompanyPhone": "2222222222",
      "SumYear": "00",
      "RequiredSalary": "00000000000000000"
    },
    {
      "Email": "karami_itpm@yahoo.com",
      "Description": null,
      "Degree": "کارشناسی",
      "Sex": "Man",
      "Average": "1730",
      "UniversityType": "دولتی-شبانه",
      "FullTime": true,
      "GraduatedYear": "2017-10-01",
      "Name": "محمد",
      "Side": null,
      "CompanyName": "بقلربیذابلدلبپد",
      "Phone": "91200000000",
      "NationalCode": "5555555555",
      "UniversityName": "تهران",
      "SoldierStatus": "غایب",
      "id": 457,
      "LastName": "محمدی",
      "CompanyPhone": null,
      "SumYear": "1 سال و 2 ماه",
      "RequiredSalary": null
    },
    {
      "Email": "1111111",
      "Description": null,
      "Degree": "کارشناسی",
      "Sex": "Man",
      "Average": "1111",
      "UniversityType": "دولتی-شبانه",
      "FullTime": true,
      "GraduatedYear": "2001-11-27",
      "Name": "1",
      "Side": "مدیر",
      "CompanyName": "همین جا",
      "Phone": "11111111111",
      "NationalCode": "1111111111",
      "UniversityName": "1",
      "SoldierStatus": "مشمول",
      "id": 472,
      "LastName": "1",
      "CompanyPhone": "1111111111",
      "SumYear": "5 ماه",
      "RequiredSalary": "1111111111"
    },
    {
      "Email": "a@b.c",
      "Description": null,
      "Degree": "کارشناسی ارشد",
      "Sex": "Female",
      "Average": "1222",
      "UniversityType": "دولتی-شبانه",
      "FullTime": true,
      "GraduatedYear": "2017-10-18",
      "Name": "حمیده",
      "Side": null,
      "CompanyName": null,
      "Phone": "09877766554",
      "NationalCode": "0009989898",
      "UniversityName": "11",
      "SoldierStatus": null,
      "id": 499,
      "LastName": "حمیدی",
      "CompanyPhone": null,
      "SumYear": null,
      "RequiredSalary": null
    },
    {
      "Email": "karami_itpm@yahoo.com",
      "Description": null,
      "Degree": "کارشناسی",
      "Sex": "Man",
      "Average": "1740",
      "UniversityType": null,
      "FullTime": true,
      "GraduatedYear": "2017-10-09",
      "Name": "م",
      "Side": null,
      "CompanyName": null,
      "Phone": "09100000000",
      "NationalCode": "0111111111",
      "UniversityName": null,
      "SoldierStatus": "پایان خدمت",
      "id": 529,
      "LastName": "ل",
      "CompanyPhone": null,
      "SumYear": null,
      "RequiredSalary": null
    },
    {
      "Email": "karami_itpm@yahoo.com",
      "Description": null,
      "Degree": "کارشناسی",
      "Sex": "Man",
      "Average": "1560",
      "UniversityType": null,
      "FullTime": true,
      "GraduatedYear": "2017-10-21",
      "Name": "ن",
      "Side": null,
      "CompanyName": null,
      "Phone": "09112236652",
      "NationalCode": "0014569877",
      "UniversityName": null,
      "SoldierStatus": "پایان خدمت",
      "id": 538,
      "LastName": "م",
      "CompanyPhone": null,
      "SumYear": null,
      "RequiredSalary": null
    },
    {
      "Email": "0000",
      "Description": null,
      "Degree": "فوق دیپلم",
      "Sex": "Man",
      "Average": "0000",
      "UniversityType": "دولتی-شبانه",
      "FullTime": true,
      "GraduatedYear": "2017-09-25",
      "Name": "0÷0",
      "Side": null,
      "CompanyName": null,
      "Phone": "00000000000",
      "NationalCode": "0000000000",
      "UniversityName": "00",
      "SoldierStatus": "پایان خدمت",
      "id": 547,
      "LastName": "0",
      "CompanyPhone": null,
      "SumYear": null,
      "RequiredSalary": "0"
    },
    {
      "Email": "00",
      "Description": null,
      "Degree": "دکتری",
      "Sex": "Man",
      "Average": "0000",
      "UniversityType": "دولتی-شبانه",
      "FullTime": true,
      "GraduatedYear": "2017-09-25",
      "Name": "0",
      "Side": "0",
      "CompanyName": "0",
      "Phone": "00000000000",
      "NationalCode": "0000000000",
      "UniversityName": "000",
      "SoldierStatus": "معافیت دائم",
      "id": 550,
      "LastName": "0",
      "CompanyPhone": "0000000000",
      "SumYear": "0",
      "RequiredSalary": "0"
    },
    {
      "Email": "2",
      "Description": null,
      "Degree": "کارشناسی ارشد",
      "Sex": "Female",
      "Average": "2222",
      "UniversityType": "دولتی-شبانه",
      "FullTime": false,
      "GraduatedYear": "2017-10-24",
      "Name": "2",
      "Side": null,
      "CompanyName": null,
      "Phone": "22222222222",
      "NationalCode": "2222222222",
      "UniversityName": "2",
      "SoldierStatus": null,
      "id": 553,
      "LastName": "2",
      "CompanyPhone": null,
      "SumYear": null,
      "RequiredSalary": "2"
    }
  ],
  "totalElements": 40,
  "last": false,
  "totalPages": 4,
  "sort": null,
  "first": false,
  "numberOfElements": 10,
  "size": 10,
  "number": 1
}
