{
  "content": [
    {
      "Email": "karami_itpm@yahoo.com",
      "Description": null,
      "Degree": "کارشناسی",
      "Sex": "Man",
      "Average": "1640",
      "UniversityType": "دولتی-شبانه",
      "FullTime": false,
      "GraduatedYear": "2014-10-04",
      "Name": "طه ",
      "Side": null,
      "CompanyName": null,
      "Phone": "09101111111",
      "NationalCode": "0011555555",
      "UniversityName": "اصفهان",
      "SoldierStatus": "معافیت دائم",
      "id": 556,
      "LastName": "حمیدی",
      "CompanyPhone": null,
      "SumYear": null,
      "RequiredSalary": null
    },
    {
      "Email": "5",
      "Description": null,
      "Degree": "کارشناسی",
      "Sex": "Female",
      "Average": null,
      "UniversityType": "دولتی-شبانه",
      "FullTime": false,
      "GraduatedYear": null,
      "Name": "5",
      "Side": null,
      "CompanyName": null,
      "Phone": "55555555555",
      "NationalCode": "5555555555",
      "UniversityName": "5",
      "SoldierStatus": null,
      "id": 565,
      "LastName": "5",
      "CompanyPhone": null,
      "SumYear": null,
      "RequiredSalary": null
    },
    {
      "Email": "5",
      "Description": "5",
      "Degree": "فوق دیپلم",
      "Sex": "Female",
      "Average": "5555",
      "UniversityType": "دولتی-روزانه",
      "FullTime": false,
      "GraduatedYear": "2017-10-30",
      "Name": "5",
      "Side": null,
      "CompanyName": null,
      "Phone": "55555555555",
      "NationalCode": "5555555555",
      "UniversityName": "5",
      "SoldierStatus": null,
      "id": 574,
      "LastName": "5",
      "CompanyPhone": null,
      "SumYear": null,
      "RequiredSalary": "5"
    },
    {
      "Email": "karami_itpm@yahoo.com",
      "Description": null,
      "Degree": "کارشناسی",
      "Sex": "Man",
      "Average": null,
      "UniversityType": "دولتی-روزانه",
      "FullTime": false,
      "GraduatedYear": "2017-10-15",
      "Name": "محمد",
      "Side": null,
      "CompanyName": null,
      "Phone": "77777777777",
      "NationalCode": "6666666666",
      "UniversityName": "تبریز",
      "SoldierStatus": "معافیت دائم",
      "id": 583,
      "LastName": "محمدی",
      "CompanyPhone": null,
      "SumYear": null,
      "RequiredSalary": null
    },
    {
      "Email": "ffvsdv",
      "Description": null,
      "Degree": "فوق دیپلم",
      "Sex": "Man",
      "Average": null,
      "UniversityType": null,
      "FullTime": false,
      "GraduatedYear": null,
      "Name": "f",
      "Side": null,
      "CompanyName": null,
      "Phone": "11111111111",
      "NationalCode": "5555555555",
      "UniversityName": null,
      "SoldierStatus": "معافیت دائم",
      "id": 592,
      "LastName": "f",
      "CompanyPhone": null,
      "SumYear": null,
      "RequiredSalary": null
    },
    {
      "Email": "karami_itpm@yahoo.com",
      "Description": null,
      "Degree": "کارشناسی",
      "Sex": "Man",
      "Average": null,
      "UniversityType": null,
      "FullTime": false,
      "GraduatedYear": "2017-04-25",
      "Name": "نیما",
      "Side": null,
      "CompanyName": null,
      "Phone": "09134444444",
      "NationalCode": "0144444444",
      "UniversityName": "شیراز",
      "SoldierStatus": "معافیت دائم",
      "id": 607,
      "LastName": "نبوی",
      "CompanyPhone": null,
      "SumYear": null,
      "RequiredSalary": null
    },
    {
      "Email": "karami_itpm@yahoo.com",
      "Description": null,
      "Degree": "فوق دیپلم",
      "Sex": "Female",
      "Average": null,
      "UniversityType": null,
      "FullTime": false,
      "GraduatedYear": null,
      "Name": "0",
      "Side": null,
      "CompanyName": null,
      "Phone": "09123456789",
      "NationalCode": "0000000000",
      "UniversityName": null,
      "SoldierStatus": null,
      "id": 616,
      "LastName": "0",
      "CompanyPhone": null,
      "SumYear": null,
      "RequiredSalary": null
    },
    {
      "Email": "karami_itpm@c",
      "Description": null,
      "Degree": "کارشناسی ارشد",
      "Sex": "Female",
      "Average": null,
      "UniversityType": null,
      "FullTime": false,
      "GraduatedYear": null,
      "Name": "ف",
      "Side": null,
      "CompanyName": null,
      "Phone": "44444444444",
      "NationalCode": "4444444444",
      "UniversityName": null,
      "SoldierStatus": null,
      "id": 625,
      "LastName": "ک",
      "CompanyPhone": null,
      "SumYear": null,
      "RequiredSalary": null
    },
    {
      "Email": "f@v",
      "Description": null,
      "Degree": "فوق دیپلم",
      "Sex": "Female",
      "Average": null,
      "UniversityType": null,
      "FullTime": false,
      "GraduatedYear": null,
      "Name": "g",
      "Side": null,
      "CompanyName": null,
      "Phone": "77777777777",
      "NationalCode": "6666666666",
      "UniversityName": null,
      "SoldierStatus": null,
      "id": 634,
      "LastName": "r",
      "CompanyPhone": null,
      "SumYear": null,
      "RequiredSalary": null
    },
    {
      "Email": "4",
      "Description": null,
      "Degree": "فوق دیپلم",
      "Sex": "Female",
      "Average": null,
      "UniversityType": null,
      "FullTime": false,
      "GraduatedYear": null,
      "Name": "j",
      "Side": null,
      "CompanyName": null,
      "Phone": "22222222222",
      "NationalCode": "9999999999",
      "UniversityName": null,
      "SoldierStatus": null,
      "id": 643,
      "LastName": "h",
      "CompanyPhone": null,
      "SumYear": null,
      "RequiredSalary": null
    }
  ],
  "totalElements": 40,
  "last": false,
  "totalPages": 4,
  "sort": null,
  "first": false,
  "numberOfElements": 10,
  "size": 10,
  "number": 2
}
