{
  "content": [
    {
      "Email": "3",
      "Description": null,
      "Degree": "کارشناسی",
      "Sex": "Female",
      "Average": null,
      "UniversityType": null,
      "FullTime": false,
      "GraduatedYear": null,
      "Name": "s",
      "Side": null,
      "CompanyName": null,
      "Phone": "99999999999",
      "NationalCode": "4444444444",
      "UniversityName": null,
      "SoldierStatus": null,
      "id": 646,
      "LastName": "d",
      "CompanyPhone": null,
      "SumYear": null,
      "RequiredSalary": null
    },
    {
      "Email": "t2@gd",
      "Description": null,
      "Degree": "کارشناسی",
      "Sex": "Female",
      "Average": null,
      "UniversityType": null,
      "FullTime": false,
      "GraduatedYear": null,
      "Name": "i",
      "Side": null,
      "CompanyName": null,
      "Phone": "22222222222",
      "NationalCode": "7777777777",
      "UniversityName": null,
      "SoldierStatus": null,
      "id": 655,
      "LastName": "y",
      "CompanyPhone": null,
      "SumYear": null,
      "RequiredSalary": null
    },
    {
      "Email": "6f@g",
      "Description": null,
      "Degree": "کارشناسی",
      "Sex": "Female",
      "Average": null,
      "UniversityType": null,
      "FullTime": false,
      "GraduatedYear": null,
      "Name": "o",
      "Side": null,
      "CompanyName": null,
      "Phone": "11111111111",
      "NationalCode": "1454785444",
      "UniversityName": null,
      "SoldierStatus": null,
      "id": 664,
      "LastName": "l",
      "CompanyPhone": null,
      "SumYear": null,
      "RequiredSalary": null
    },
    {
      "Email": "9",
      "Description": null,
      "Degree": "دیپلم",
      "Sex": "Female",
      "Average": null,
      "UniversityType": null,
      "FullTime": false,
      "GraduatedYear": null,
      "Name": "9",
      "Side": null,
      "CompanyName": null,
      "Phone": "99999999999",
      "NationalCode": "9999999999",
      "UniversityName": null,
      "SoldierStatus": null,
      "id": 673,
      "LastName": "9",
      "CompanyPhone": null,
      "SumYear": null,
      "RequiredSalary": null
    },
    {
      "Email": "880",
      "Description": null,
      "Degree": "فوق دیپلم",
      "Sex": "Female",
      "Average": null,
      "UniversityType": null,
      "FullTime": false,
      "GraduatedYear": null,
      "Name": "8",
      "Side": null,
      "CompanyName": null,
      "Phone": "88888888888",
      "NationalCode": "8888888888",
      "UniversityName": null,
      "SoldierStatus": null,
      "id": 682,
      "LastName": "8",
      "CompanyPhone": null,
      "SumYear": null,
      "RequiredSalary": null
    },
    {
      "Email": "1",
      "Description": null,
      "Degree": "فوق دیپلم",
      "Sex": "Female",
      "Average": null,
      "UniversityType": null,
      "FullTime": false,
      "GraduatedYear": null,
      "Name": "1",
      "Side": null,
      "CompanyName": null,
      "Phone": "11111111111",
      "NationalCode": "1111111111",
      "UniversityName": null,
      "SoldierStatus": null,
      "id": 691,
      "LastName": "1",
      "CompanyPhone": null,
      "SumYear": null,
      "RequiredSalary": null
    },
    {
      "Email": "9c",
      "Description": null,
      "Degree": "کارشناسی ارشد",
      "Sex": "Female",
      "Average": null,
      "UniversityType": null,
      "FullTime": false,
      "GraduatedYear": null,
      "Name": "9",
      "Side": null,
      "CompanyName": null,
      "Phone": "99999999999",
      "NationalCode": "9999999999",
      "UniversityName": null,
      "SoldierStatus": null,
      "id": 700,
      "LastName": "9",
      "CompanyPhone": null,
      "SumYear": null,
      "RequiredSalary": null
    },
    {
      "Email": "4",
      "Description": null,
      "Degree": "فوق دیپلم",
      "Sex": "Man",
      "Average": null,
      "UniversityType": "دولتی-روزانه",
      "FullTime": false,
      "GraduatedYear": "2017-10-31",
      "Name": "5",
      "Side": null,
      "CompanyName": null,
      "Phone": "55555555555",
      "NationalCode": "5555555555",
      "UniversityName": null,
      "SoldierStatus": "معافیت موقت",
      "id": 709,
      "LastName": "5",
      "CompanyPhone": null,
      "SumYear": null,
      "RequiredSalary": null
    },
    {
      "Email": "0",
      "Description": null,
      "Degree": "دیپلم",
      "Sex": "Female",
      "Average": null,
      "UniversityType": null,
      "FullTime": false,
      "GraduatedYear": null,
      "Name": "0",
      "Side": null,
      "CompanyName": null,
      "Phone": "00000000000",
      "NationalCode": "0000000000",
      "UniversityName": null,
      "SoldierStatus": null,
      "id": 100897,
      "LastName": "0",
      "CompanyPhone": null,
      "SumYear": null,
      "RequiredSalary": null
    },
    {
      "Email": "8",
      "Description": null,
      "Degree": "فوق دیپلم",
      "Sex": "Female",
      "Average": null,
      "UniversityType": null,
      "FullTime": false,
      "GraduatedYear": null,
      "Name": "8",
      "Side": null,
      "CompanyName": null,
      "Phone": "88888888888",
      "NationalCode": "8888888888",
      "UniversityName": null,
      "SoldierStatus": null,
      "id": 100898,
      "LastName": "8",
      "CompanyPhone": null,
      "SumYear": null,
      "RequiredSalary": null
    }
  ],
  "totalElements": 40,
  "last": true,
  "totalPages": 4,
  "sort": null,
  "first": false,
  "numberOfElements": 10,
  "size": 10,
  "number": 3
}
