{
  "content": [
    {
      "gender": true,
      "Adress": "کلینیک بیمارستان دی",
      "name": "میترا آزادی",
      "docCode": 1,
      "orgId": 1,
      "age": 22
    },
    {
      "gender": false,
      "Adress": "خیابان توانیر پلاک 3 کلینیک آریتمی",
      "name": "سعید اورعی",
      "docCode": 2,
      "orgId": 1,
      "age": 32
    },
    {
      "gender": false,
      "Adress": "ولیعصر روبروی بیمارستان دی ساختمان پزشکان دی",
      "name": "محمود روشنی",
      "docCode": 3,
      "orgId": 1,
      "age": 44
    },
    {
      "gender": true,
      "Adress": "ولیعصر روبروی بیمارستان دی ساختمان پزشکان دی",
      "name": "فریده روشنعلی",
      "docCode": 4,
      "orgId": 1,
      "age": 50
    },
    {
      "gender": false,
      "Adress": "کلینیک بیمارستان دی",
      "name": "جامی شکیبی",
      "docCode": 5,
      "orgId": 1,
      "age": 56
    },
    {
      "gender": false,
      "Adress": "ولیعصر روبروی بیمارستان دی ساختمان پزشکان دی",
      "name": "علی ضرابی",
      "docCode": 6,
      "orgId": 1,
      "age": 67
    },
    {
      "gender": false,
      "Adress": "ولیعصر روبروی بیمارستان دی ساختمان پزشکان دی شماره 4",
      "name": "جعفراکبری",
      "docCode": 7,
      "orgId": 3,
      "age": 32
    },
    {
      "gender": false,
      "Adress": "کلینیک بیمارستان دی",
      "name": "جامی شکیبی",
      "docCode": 8,
      "orgId": 2,
      "age": 55
    },
    {
      "gender": false,
      "Adress": "کلینیک بیمارستان دی",
      "name": "محمدمهرانپور",
      "docCode": 9,
      "orgId": 2,
      "age": 67
    },
    {
      "gender": false,
      "Adress": "ونک ابتدای خیابان سنایی ساختمان 41",
      "name": "علیرضا خلج",
      "docCode": 10,
      "orgId": 3,
      "age": 43
    }
  ],
  "last": false,
  "totalElements": 20,
  "totalPages": 2,
  "size": 10,
  "number": 0,
  "first": true,
  "sort": null,
  "numberOfElements": 10
}
