{
  "content": [
    {
      "gender": false,
      "Adress": "عباس آباد قائم مقام جنب تهران کلینیک کوچه شهدا پلاک 9 // اقدیسه نبش کوچه نیلوفر ساختمان صاحبقرانیه پلاک2",
      "name": "سعید توکلی",
      "docCode": 11,
      "orgId": 2,
      "age": 22
    },
    {
      "gender": false,
      "Adress": "ولیعصر روبروی بیمارستان دی ساختمان پزشکان دی شماره 4",
      "name": "مرتضی عطری",
      "docCode": 12,
      "orgId": 3,
      "age": 56
    },
    {
      "gender": false,
      "Adress": "-",
      "name": "پرویز کشکولی",
      "docCode": 13,
      "orgId": 3,
      "age": 55
    },
    {
      "gender": false,
      "Adress": "ولیعصر روبروی بیمارستان دی ساختمان پزشکان دی",
      "name": "کامران نجفی",
      "docCode": 14,
      "orgId": 3,
      "age": 45
    },
    {
      "gender": false,
      "Adress": "ولیعصر روبروی بیمارستان دی ساختمان پزشکان دی",
      "name": "کامران نجفی",
      "docCode": 15,
      "orgId": 3,
      "age": 45
    },
    {
      "gender": false,
      "Adress": "ولیعصر روبروی بیمارستان دی ساختمان پزشکان دی",
      "name": "مصطفی هاشمی",
      "docCode": 16,
      "orgId": 3,
      "age": 56
    },
    {
      "gender": false,
      "Adress": "بنیانگذار و مدیر عامل محترم بیمارستان",
      "name": "حسین امامی میبدی",
      "docCode": 17,
      "orgId": 4,
      "age": 77
    },
    {
      "gender": false,
      "Adress": "خیابان ملاصدرا خیابان شیراز شمالی کلینیک غرب",
      "name": "فریبرز اسدیان",
      "docCode": 18,
      "orgId": 4,
      "age": 87
    },
    {
      "gender": false,
      "Adress": "ولیعصر روبروی بیمارستان دی ساختمان پزشکان دی",
      "name": "محسن جلیلیان",
      "docCode": 19,
      "orgId": 4,
      "age": 56
    },
    {
      "gender": false,
      "Adress": "-",
      "name": "نسرین یزدانی",
      "docCode": 20,
      "orgId": 4,
      "age": 53
    }
  ],
  "last": true,
  "totalElements": 20,
  "totalPages": 2,
  "size": 10,
  "number": 1,
  "first": false,
  "sort": null,
  "numberOfElements": 10
}
