{
  "content": [
    {
      "Comment": null,
      "id": 703,
      "Date": "2017-09-24"
    },
    {
      "Comment": null,
      "id": 712,
      "Date": "2017-09-23"
    },
    {
      "Comment": null,
      "id": 100899,
      "Date": "2017-10-24"
    }
  ],
  "totalPages": 5,
  "last": true,
  "totalElements": 43,
  "sort": null,
  "first": false,
  "numberOfElements": 3,
  "size": 10,
  "number": 4
}
