{
  "content": [
    {
      "Comment": null,
      "id": 427,
      "Date": null
    },
    {
      "Comment": null,
      "id": 433,
      "Date": null
    },
    {
      "Comment": null,
      "id": 439,
      "Date": "2017-10-08"
    },
    {
      "Comment": null,
      "id": 445,
      "Date": null
    },
    {
      "Comment": null,
      "id": 451,
      "Date": null
    },
    {
      "Comment": "ندارد",
      "id": 460,
      "Date": "2017-10-08"
    },
    {
      "Comment": null,
      "id": 466,
      "Date": null
    },
    {
      "Comment": null,
      "id": 475,
      "Date": null
    },
    {
      "Comment": null,
      "id": 481,
      "Date": "2017-10-30"
    },
    {
      "Comment": null,
      "id": 487,
      "Date": "2017-10-09"
    }
  ],
  "totalPages": 5,
  "last": false,
  "totalElements": 43,
  "sort": null,
  "first": false,
  "numberOfElements": 10,
  "size": 10,
  "number": 1
}
