{
  "content": [
    {
      "Comment": "لبفلبفل",
      "id": 493,
      "Date": "2017-10-09"
    },
    {
      "Comment": null,
      "id": 523,
      "Date": "2017-09-30"
    },
    {
      "Comment": "ندرادد ایتبلذعتب",
      "id": 532,
      "Date": "2017-10-07"
    },
    {
      "Comment": "تایید نگردید",
      "id": 541,
      "Date": "2017-10-08"
    },
    {
      "Comment": "تایید نگردید",
      "id": 559,
      "Date": "2017-10-09"
    },
    {
      "Comment": null,
      "id": 568,
      "Date": null
    },
    {
      "Comment": null,
      "id": 577,
      "Date": null
    },
    {
      "Comment": null,
      "id": 586,
      "Date": "2017-09-23"
    },
    {
      "Comment": null,
      "id": 595,
      "Date": "2017-09-24"
    },
    {
      "Comment": null,
      "id": 601,
      "Date": "2017-09-24"
    }
  ],
  "totalPages": 5,
  "last": false,
  "totalElements": 43,
  "sort": null,
  "first": false,
  "numberOfElements": 10,
  "size": 10,
  "number": 2
}
