{
  "content": [
    {
      "Comment": null,
      "id": 610,
      "Date": "2017-10-08"
    },
    {
      "Comment": null,
      "id": 619,
      "Date": "2017-09-25"
    },
    {
      "Comment": null,
      "id": 628,
      "Date": "2017-09-24"
    },
    {
      "Comment": null,
      "id": 637,
      "Date": "2017-10-14"
    },
    {
      "Comment": null,
      "id": 649,
      "Date": "2017-09-24"
    },
    {
      "Comment": null,
      "id": 658,
      "Date": "2017-09-24"
    },
    {
      "Comment": null,
      "id": 667,
      "Date": "2017-09-23"
    },
    {
      "Comment": null,
      "id": 676,
      "Date": "2017-09-25"
    },
    {
      "Comment": null,
      "id": 685,
      "Date": "2017-09-25"
    },
    {
      "Comment": null,
      "id": 694,
      "Date": "2017-09-24"
    }
  ],
  "totalPages": 5,
  "last": false,
  "totalElements": 43,
  "sort": null,
  "first": false,
  "numberOfElements": 10,
  "size": 10,
  "number": 3
}
