{
  "content": [
    {
      "Comment": null,
      "id": 301,
      "Date": "2017-10-03"
    },
    {
      "Comment": null,
      "id": 310,
      "Date": "2017-10-03"
    },
    {
      "Comment": null,
      "id": 316,
      "Date": "2017-10-03"
    },
    {
      "Comment": null,
      "id": 322,
      "Date": "2017-10-03"
    },
    {
      "Comment": "تایید میگردد....",
      "id": 334,
      "Date": "2017-10-03"
    },
    {
      "Comment": "تایید گردید",
      "id": 355,
      "Date": "2017-10-03"
    },
    {
      "Comment": null,
      "id": 364,
      "Date": "2017-10-03"
    },
    {
      "Comment": "تایید میشود ",
      "id": 388,
      "Date": "2017-10-02"
    },
    {
      "Comment": "ثبت نام انجام شد",
      "id": 409,
      "Date": "2017-10-07"
    },
    {
      "Comment": null,
      "id": 418,
      "Date": "2017-10-08"
    }
  ],
  "totalPages": 5,
  "last": false,
  "totalElements": 43,
  "sort": null,
  "first": true,
  "numberOfElements": 10,
  "size": 10,
  "number": 0
}
