{
  "content": [
    {
      "Comment": null,
      "Satisfaction1": null,
      "Satisfaction3": null,
      "Satisfaction2": null,
      "Satisfaction4": null,
      "id": 688,
      "Course": null,
      "Applicant": "8"
    },
    {
      "Comment": null,
      "Satisfaction1": null,
      "Satisfaction3": null,
      "Satisfaction2": null,
      "Satisfaction4": null,
      "id": 697,
      "Course": null,
      "Applicant": "1"
    },
    {
      "Comment": null,
      "Satisfaction1": null,
      "Satisfaction3": null,
      "Satisfaction2": null,
      "Satisfaction4": null,
      "id": 706,
      "Course": null,
      "Applicant": "9"
    },
    {
      "Comment": null,
      "Satisfaction1": null,
      "Satisfaction3": null,
      "Satisfaction2": null,
      "Satisfaction4": null,
      "id": 715,
      "Course": null,
      "Applicant": "5"
    },
    {
      "Comment": null,
      "Satisfaction1": null,
      "Satisfaction3": null,
      "Satisfaction2": null,
      "Satisfaction4": null,
      "id": 100900,
      "Course": null,
      "Applicant": "8"
    }
  ],
  "totalElements": 45,
  "last": true,
  "totalPages": 5,
  "sort": null,
  "first": false,
  "numberOfElements": 5,
  "size": 10,
  "number": 4
}
