{
  "content": [
    {
      "Comment": null,
      "Satisfaction1": "خوب",
      "Satisfaction3": null,
      "Satisfaction2": null,
      "Satisfaction4": null,
      "id": 484,
      "Course": null,
      "Applicant": "1"
    },
    {
      "Comment": null,
      "Satisfaction1": "خوب",
      "Satisfaction3": null,
      "Satisfaction2": null,
      "Satisfaction4": null,
      "id": 490,
      "Course": null,
      "Applicant": "1"
    },
    {
      "Comment": null,
      "Satisfaction1": "خوب",
      "Satisfaction3": null,
      "Satisfaction2": null,
      "Satisfaction4": null,
      "id": 496,
      "Course": null,
      "Applicant": "1"
    },
    {
      "Comment": null,
      "Satisfaction1": "خوب",
      "Satisfaction3": null,
      "Satisfaction2": null,
      "Satisfaction4": null,
      "id": 526,
      "Course": null,
      "Applicant": "حمیدی"
    },
    {
      "Comment": null,
      "Satisfaction1": "خوب",
      "Satisfaction3": null,
      "Satisfaction2": null,
      "Satisfaction4": null,
      "id": 535,
      "Course": null,
      "Applicant": "ل"
    },
    {
      "Comment": null,
      "Satisfaction1": "خوب",
      "Satisfaction3": "خوب",
      "Satisfaction2": "خوب",
      "Satisfaction4": "شرکت نمیکنم",
      "id": 544,
      "Course": null,
      "Applicant": null
    },
    {
      "Comment": null,
      "Satisfaction1": null,
      "Satisfaction3": null,
      "Satisfaction2": null,
      "Satisfaction4": null,
      "id": 562,
      "Course": null,
      "Applicant": "حمیدی"
    },
    {
      "Comment": null,
      "Satisfaction1": null,
      "Satisfaction3": null,
      "Satisfaction2": null,
      "Satisfaction4": null,
      "id": 571,
      "Course": null,
      "Applicant": "5"
    },
    {
      "Comment": null,
      "Satisfaction1": null,
      "Satisfaction3": null,
      "Satisfaction2": null,
      "Satisfaction4": null,
      "id": 580,
      "Course": null,
      "Applicant": "5"
    },
    {
      "Comment": null,
      "Satisfaction1": null,
      "Satisfaction3": null,
      "Satisfaction2": null,
      "Satisfaction4": null,
      "id": 589,
      "Course": null,
      "Applicant": "محمدی"
    }
  ],
  "totalElements": 45,
  "last": false,
  "totalPages": 5,
  "sort": null,
  "first": false,
  "numberOfElements": 10,
  "size": 10,
  "number": 2
}
