{
  "content": [
    {
      "Comment": "sklancfjlbdv",
      "Satisfaction1": "عالی",
      "Satisfaction3": "خوب",
      "Satisfaction2": "ضعیف",
      "Satisfaction4": "عالی",
      "id": 304,
      "Course": null,
      "Applicant": "زاهدی"
    },
    {
      "Comment": null,
      "Satisfaction1": null,
      "Satisfaction3": null,
      "Satisfaction2": null,
      "Satisfaction4": null,
      "id": 313,
      "Course": null,
      "Applicant": null
    },
    {
      "Comment": null,
      "Satisfaction1": "عالی",
      "Satisfaction3": null,
      "Satisfaction2": null,
      "Satisfaction4": null,
      "id": 319,
      "Course": null,
      "Applicant": null
    },
    {
      "Comment": null,
      "Satisfaction1": null,
      "Satisfaction3": null,
      "Satisfaction2": null,
      "Satisfaction4": null,
      "id": 325,
      "Course": null,
      "Applicant": null
    },
    {
      "Comment": null,
      "Satisfaction1": null,
      "Satisfaction3": null,
      "Satisfaction2": null,
      "Satisfaction4": null,
      "id": 337,
      "Course": null,
      "Applicant": null
    },
    {
      "Comment": null,
      "Satisfaction1": null,
      "Satisfaction3": null,
      "Satisfaction2": null,
      "Satisfaction4": null,
      "id": 340,
      "Course": null,
      "Applicant": null
    },
    {
      "Comment": null,
      "Satisfaction1": null,
      "Satisfaction3": null,
      "Satisfaction2": null,
      "Satisfaction4": null,
      "id": 343,
      "Course": null,
      "Applicant": null
    },
    {
      "Comment": "انتقاد ندارم",
      "Satisfaction1": "عالی",
      "Satisfaction3": "عالی",
      "Satisfaction2": "خوب",
      "Satisfaction4": "خوب",
      "id": 358,
      "Course": null,
      "Applicant": "نظری"
    },
    {
      "Comment": null,
      "Satisfaction1": "خوب",
      "Satisfaction3": null,
      "Satisfaction2": null,
      "Satisfaction4": null,
      "id": 367,
      "Course": null,
      "Applicant": "کرمی"
    },
    {
      "Comment": null,
      "Satisfaction1": "خوب",
      "Satisfaction3": null,
      "Satisfaction2": null,
      "Satisfaction4": null,
      "id": 391,
      "Course": null,
      "Applicant": "احسانی"
    }
  ],
  "totalElements": 45,
  "last": false,
  "totalPages": 5,
  "sort": null,
  "first": true,
  "numberOfElements": 10,
  "size": 10,
  "number": 0
}
