{
  "content": [
    {
      "Comment": null,
      "Satisfaction1": null,
      "Satisfaction3": null,
      "Satisfaction2": null,
      "Satisfaction4": null,
      "id": 598,
      "Course": null,
      "Applicant": "f"
    },
    {
      "Comment": null,
      "Satisfaction1": null,
      "Satisfaction3": null,
      "Satisfaction2": null,
      "Satisfaction4": null,
      "id": 604,
      "Course": null,
      "Applicant": "f"
    },
    {
      "Comment": null,
      "Satisfaction1": null,
      "Satisfaction3": null,
      "Satisfaction2": null,
      "Satisfaction4": null,
      "id": 613,
      "Course": null,
      "Applicant": "نبوی"
    },
    {
      "Comment": null,
      "Satisfaction1": null,
      "Satisfaction3": null,
      "Satisfaction2": null,
      "Satisfaction4": null,
      "id": 622,
      "Course": null,
      "Applicant": "0"
    },
    {
      "Comment": null,
      "Satisfaction1": null,
      "Satisfaction3": null,
      "Satisfaction2": null,
      "Satisfaction4": null,
      "id": 631,
      "Course": null,
      "Applicant": "ک"
    },
    {
      "Comment": null,
      "Satisfaction1": null,
      "Satisfaction3": null,
      "Satisfaction2": null,
      "Satisfaction4": null,
      "id": 640,
      "Course": null,
      "Applicant": "r"
    },
    {
      "Comment": null,
      "Satisfaction1": null,
      "Satisfaction3": null,
      "Satisfaction2": null,
      "Satisfaction4": null,
      "id": 652,
      "Course": null,
      "Applicant": "d"
    },
    {
      "Comment": null,
      "Satisfaction1": null,
      "Satisfaction3": null,
      "Satisfaction2": null,
      "Satisfaction4": null,
      "id": 661,
      "Course": null,
      "Applicant": "y"
    },
    {
      "Comment": null,
      "Satisfaction1": null,
      "Satisfaction3": null,
      "Satisfaction2": null,
      "Satisfaction4": null,
      "id": 670,
      "Course": null,
      "Applicant": "l"
    },
    {
      "Comment": null,
      "Satisfaction1": null,
      "Satisfaction3": null,
      "Satisfaction2": null,
      "Satisfaction4": null,
      "id": 679,
      "Course": null,
      "Applicant": "9"
    }
  ],
  "totalElements": 45,
  "last": false,
  "totalPages": 5,
  "sort": null,
  "first": false,
  "numberOfElements": 10,
  "size": 10,
  "number": 3
}
