{
  "content": [
    {
      "Comment": null,
      "Satisfaction1": "خوب",
      "Satisfaction3": null,
      "Satisfaction2": null,
      "Satisfaction4": null,
      "id": 412,
      "Course": null,
      "Applicant": "حسنی"
    },
    {
      "Comment": null,
      "Satisfaction1": "خوب",
      "Satisfaction3": null,
      "Satisfaction2": "خوب",
      "Satisfaction4": "خوب",
      "id": 421,
      "Course": null,
      "Applicant": "احمدی"
    },
    {
      "Comment": null,
      "Satisfaction1": "خوب",
      "Satisfaction3": null,
      "Satisfaction2": null,
      "Satisfaction4": null,
      "id": 430,
      "Course": null,
      "Applicant": "1"
    },
    {
      "Comment": null,
      "Satisfaction1": "خوب",
      "Satisfaction3": null,
      "Satisfaction2": null,
      "Satisfaction4": null,
      "id": 436,
      "Course": null,
      "Applicant": "1"
    },
    {
      "Comment": null,
      "Satisfaction1": "خوب",
      "Satisfaction3": null,
      "Satisfaction2": null,
      "Satisfaction4": null,
      "id": 442,
      "Course": null,
      "Applicant": "1"
    },
    {
      "Comment": null,
      "Satisfaction1": "خوب",
      "Satisfaction3": null,
      "Satisfaction2": null,
      "Satisfaction4": null,
      "id": 448,
      "Course": null,
      "Applicant": "علوی"
    },
    {
      "Comment": null,
      "Satisfaction1": "خوب",
      "Satisfaction3": null,
      "Satisfaction2": null,
      "Satisfaction4": null,
      "id": 454,
      "Course": null,
      "Applicant": "1"
    },
    {
      "Comment": null,
      "Satisfaction1": "عالی",
      "Satisfaction3": "ضعیف",
      "Satisfaction2": "متوسط",
      "Satisfaction4": "عالی",
      "id": 463,
      "Course": null,
      "Applicant": "محمدی"
    },
    {
      "Comment": null,
      "Satisfaction1": "خوب",
      "Satisfaction3": null,
      "Satisfaction2": null,
      "Satisfaction4": null,
      "id": 469,
      "Course": null,
      "Applicant": "1"
    },
    {
      "Comment": null,
      "Satisfaction1": "خوب",
      "Satisfaction3": null,
      "Satisfaction2": null,
      "Satisfaction4": null,
      "id": 478,
      "Course": null,
      "Applicant": "1"
    }
  ],
  "totalElements": 45,
  "last": false,
  "totalPages": 5,
  "sort": null,
  "first": false,
  "numberOfElements": 10,
  "size": 10,
  "number": 1
}
